{
    "key": "group_58ebcc07bfbd7",
    "title": "Group: Background Options — To Clone",
    "fields": [
        {
            "key": "field_5e4abd5d8ad77",
            "label": "Background Options",
            "name": "",
            "type": "tab",
            "instructions": "",
            "required": 0,
            "conditional_logic": 0,
            "wrapper": {
                "width": "",
                "class": "",
                "id": ""
            },
            "placement": "left",
            "endpoint": 0
        },
        {
            "key": "field_596d117a08098",
            "label": "",
            "name": "background_options",
            "type": "group",
            "instructions": "",
            "required": 0,
            "conditional_logic": 0,
            "wrapper": {
                "width": "",
                "class": "",
                "id": ""
            },
            "layout": "block",
            "sub_fields": [
                {
                    "key": "field_5ab3e6937bb9d",
                    "label": "Select Media Type",
                    "name": "background_type",
                    "type": "select",
                    "instructions": "Choose a type of media for the background. Remember: image and video files should be compressed and optimized with tools like ImageOptim (https:\/\/imageoptim.com\/online) and Handbrake (https:\/\/handbrake.fr\/) prior to upload. For best results, background media should be at least 1280x720.",
                    "required": 0,
                    "conditional_logic": 0,
                    "wrapper": {
                        "width": "",
                        "class": "",
                        "id": ""
                    },
                    "choices": {
                        "none": "None",
                        "color": "Color",
                        "image": "Image",
                        "video": "Video"
                    },
                    "default_value": "none",
                    "allow_null": 0,
                    "multiple": 0,
                    "ui": 0,
                    "return_format": "array",
                    "ajax": 0,
                    "placeholder": ""
                },
                {
                    "key": "field_5bb79386c24c1",
                    "label": "Color",
                    "name": "background_color",
                    "type": "clone",
                    "instructions": "Select a background color.",
                    "required": 0,
                    "conditional_logic": [
                        [
                            {
                                "field": "field_5ab3e6937bb9d",
                                "operator": "==",
                                "value": "color"
                            }
                        ]
                    ],
                    "wrapper": {
                        "width": "",
                        "class": "",
                        "id": ""
                    },
                    "clone": [
                        "group_5bb7934b61627"
                    ],
                    "display": "group",
                    "layout": "block",
                    "prefix_label": 0,
                    "prefix_name": 0
                },
                {
                    "key": "field_5ab3e6e67bb9f",
                    "label": "Image",
                    "name": "background_image",
                    "type": "image",
                    "instructions": "Add\/Upload an image file. (jpg, .png)",
                    "required": 0,
                    "conditional_logic": [
                        [
                            {
                                "field": "field_5ab3e6937bb9d",
                                "operator": "==",
                                "value": "image"
                            }
                        ]
                    ],
                    "wrapper": {
                        "width": "",
                        "class": "",
                        "id": ""
                    },
                    "return_format": "array",
                    "preview_size": "medium",
                    "library": "all",
                    "min_width": "",
                    "min_height": "",
                    "min_size": "",
                    "max_width": "",
                    "max_height": "",
                    "max_size": "",
                    "mime_types": "jpg, jpeg, png"
                },
                {
                    "key": "field_5c4202c73e2e8",
                    "label": "Video Description",
                    "name": "background_video_title",
                    "type": "text",
                    "instructions": "Describe your uploaded videos.",
                    "required": 0,
                    "conditional_logic": [
                        [
                            {
                                "field": "field_5ab3e6937bb9d",
                                "operator": "==",
                                "value": "video"
                            }
                        ]
                    ],
                    "wrapper": {
                        "width": "",
                        "class": "",
                        "id": ""
                    },
                    "default_value": "",
                    "placeholder": "",
                    "prepend": "",
                    "append": "",
                    "maxlength": ""
                },
                {
                    "key": "field_5ab3e72e7bba0",
                    "label": "Video (mp4)",
                    "name": "background_video",
                    "type": "file",
                    "instructions": "Required. Add\/Upload an .mp4 video file.",
                    "required": 0,
                    "conditional_logic": [
                        [
                            {
                                "field": "field_5ab3e6937bb9d",
                                "operator": "==",
                                "value": "video"
                            }
                        ]
                    ],
                    "wrapper": {
                        "width": "",
                        "class": "",
                        "id": ""
                    },
                    "return_format": "array",
                    "library": "all",
                    "min_size": "",
                    "max_size": "",
                    "mime_types": "mp4"
                },
                {
                    "key": "field_5b1aa171e3f50",
                    "label": "Video (webm)",
                    "name": "background_video_webm",
                    "type": "file",
                    "instructions": "Optional. Add\/Upload an .webm video file. Note: .webm has better compression than .mp4, but isn't supported in all browsers. If both .mp4 and .webm are uploaded, the .webm will load first.",
                    "required": 0,
                    "conditional_logic": [
                        [
                            {
                                "field": "field_5ab3e6937bb9d",
                                "operator": "==",
                                "value": "video"
                            }
                        ]
                    ],
                    "wrapper": {
                        "width": "50",
                        "class": "",
                        "id": ""
                    },
                    "return_format": "array",
                    "library": "all",
                    "min_size": "",
                    "max_size": "",
                    "mime_types": "webm"
                },
                {
                    "key": "field_5c794cdf8de38",
                    "label": "Show Overlay?",
                    "name": "show_overlay",
                    "type": "true_false",
                    "instructions": "Show darker overlay between image and content",
                    "required": 0,
                    "conditional_logic": [
                        [
                            {
                                "field": "field_5ab3e6937bb9d",
                                "operator": "==",
                                "value": "image"
                            }
                        ],
                        [
                            {
                                "field": "field_5ab3e6937bb9d",
                                "operator": "==",
                                "value": "video"
                            }
                        ]
                    ],
                    "wrapper": {
                        "width": "",
                        "class": "",
                        "id": ""
                    },
                    "message": "",
                    "default_value": 1,
                    "ui": 1,
                    "ui_on_text": "",
                    "ui_off_text": ""
                }
            ]
        }
    ],
    "location": [
        [
            {
                "param": "post_type",
                "operator": "==",
                "value": "post"
            }
        ]
    ],
    "menu_order": 0,
    "position": "normal",
    "style": "default",
    "label_placement": "top",
    "instruction_placement": "label",
    "hide_on_screen": "",
    "active": false,
    "description": "",
    "modified": 1602185906
}